%YAML 1.1
%TAG !u! tag:unity3d.com,2011:
--- !u!114 &11400000
MonoBehaviour:
  m_ObjectHideFlags: 0
  m_CorrespondingSourceObject: {fileID: 0}
  m_PrefabInstance: {fileID: 0}
  m_PrefabAsset: {fileID: 0}
  m_GameObject: {fileID: 0}
  m_Enabled: 1
  m_EditorHideFlags: 0
  m_Script: {fileID: 11500000, guid: 9fc9c0a9aee347f43a68cdac3fc015d5, type: 3}
  m_Name: brown
  m_EditorClassIdentifier: 
  lightColor: {r: 0.4901961, g: 0.22352943, b: 0.15686275, a: 1}
  medColor: {r: 0.4156863, g: 0.18431373, b: 0.14901961, a: 1}
  darkColor: {r: 0.29803923, g: 0.13725491, b: 0.10588236, a: 1}
