%YAML 1.1
%TAG !u! tag:unity3d.com,2011:
--- !u!114 &11400000
MonoBehaviour:
  m_ObjectHideFlags: 0
  m_CorrespondingSourceObject: {fileID: 0}
  m_PrefabInstance: {fileID: 0}
  m_PrefabAsset: {fileID: 0}
  m_GameObject: {fileID: 0}
  m_Enabled: 1
  m_EditorHideFlags: 0
  m_Script: {fileID: 11500000, guid: 9fc9c0a9aee347f43a68cdac3fc015d5, type: 3}
  m_Name: teal
  m_EditorClassIdentifier: 
  lightColor: {r: 0.1764706, g: 0.7803922, b: 0.909804, a: 0}
  medColor: {r: 0.10196079, g: 0.56078434, b: 0.7843138, a: 0}
  darkColor: {r: 0.10196079, g: 0.4431373, b: 0.6901961, a: 0}
