%YAML 1.1
%TAG !u! tag:unity3d.com,2011:
--- !u!21 &2100000
Material:
  serializedVersion: 6
  m_ObjectHideFlags: 0
  m_CorrespondingSourceObject: {fileID: 0}
  m_PrefabInstance: {fileID: 0}
  m_PrefabAsset: {fileID: 0}
  m_Name: Purple
  m_Shader: {fileID: 4800000, guid: 2c5253af5ed93854a92dc03c6dbc39bd, type: 3}
  m_ShaderKeywords: ETC1_EXTERNAL_ALPHA
  m_LightmapFlags: 4
  m_EnableInstancingVariants: 0
  m_DoubleSidedGI: 0
  m_CustomRenderQueue: -1
  stringTagMap: {}
  disabledShaderPasses: []
  m_SavedProperties:
    serializedVersion: 3
    m_TexEnvs:
    - _MainTex:
        m_Texture: {fileID: 0}
        m_Scale: {x: 1, y: 1}
        m_Offset: {x: 0, y: 0}
    m_Floats: []
    m_Colors:
    - _FromDarkColor: {r: 0.41960788, g: 0.41960788, b: 0.41960788, a: 1}
    - _FromLightColor: {r: 0.68235296, g: 0.68235296, b: 0.68235296, a: 1}
    - _FromMedColor: {r: 0.5254902, g: 0.5254902, b: 0.5254902, a: 1}
    - _ToDarkColor: {r: 0.24705884, g: 0.1254902, b: 0.4901961, a: 1}
    - _ToLightColor: {r: 0.34901962, g: 0.18431373, b: 0.7019608, a: 1}
    - _ToMedColor: {r: 0.28627452, g: 0.14901961, b: 0.5764706, a: 1}
